…
This data set has been transformed to the [standard data
format](https://mcanigueral.github.io/evprof/articles/sessions-format.html)
defined by `evprof` and provided together with the package:

``` r

sessions <- evprof::california_ev_sessions
```

    ## # A tibble: 30,114 × 12
    ##    Session ConnectionStartDateTime ConnectionEndDateTime ChargingStartDateTime
    ##    <chr>   <dttm>                  <dttm>                <dttm>               
    ##  1 S1      2018-10-08 06:25:00     2018-10-08 17:06:00   2018-10-08 06:25:00  
    ##  2 S2      2018-10-08 06:35:00     2018-10-08 17:44:00   2018-10-08 06:35:00  
    ##  3 S3      2018-10-08 06:59:00     2018-10-08 17:28:00   2018-10-08 06:59:00  
    ##  4 S4      2018-10-08 07:07:00     2018-10-08 17:13:00   2018-10-08 07:07:00  
    ##  5 S5      2018-10-08 07:07:00     2018-10-08 17:22:00   2018-10-08 07:07:00  
    ##  6 S6      2018-10-08 07:20:00     2018-10-08 17:37:00   2018-10-08 07:20:00  
    ##  7 S7      2018-10-08 07:20:00     2018-10-08 17:51:00   2018-10-08 07:20:00  
    ##  8 S8      2018-10-08 07:27:00     2018-10-08 18:02:00   2018-10-08 07:27:00  
    ##  9 S9      2018-10-08 07:34:00     2018-10-08 17:20:00   2018-10-08 07:34:00  
    ## 10 S10     2018-10-08 07:36:00     2018-10-08 17:09:00   2018-10-08 07:36:00  
    ## # ℹ 30,104 more rows
    ## # ℹ 8 more variables: ChargingEndDateTime <dttm>, Power <dbl>, Energy <dbl>,
    ## #   ConnectionHours <dbl>, ChargingHours <dbl>, FlexibilityHours <dbl>,
    ## #   ChargingStation <chr>, UserID <chr>
…
- **Charging rates distribution**: We can get the current charging power
  distribution with function
  [`get_charging_rates_distribution()`](https://resourcefully-dev.github.io/evprof/reference/get_charging_rates_distribution.md):

``` r

charging_rates <- get_charging_rates_distribution(sessions_demand) %>% 
  select(power, ratio)

print(charging_rates)
```

    ## # A tibble: 450 × 2
    ##    power   ratio
    ##    <dbl>   <dbl>
    ##  1  0.13 0.00103
    ##  2  0.19 0.00103
    ##  3  0.2  0.00103
    ##  4  0.24 0.00103
    ##  5  0.29 0.00103
    ##  6  0.38 0.00103
    ##  7  0.46 0.00103
    ##  8  0.48 0.00206
    ##  9  0.49 0.00103
    ## 10  0.5  0.00103
    ## # ℹ 440 more rows
…
