…
- **Charging rates distribution**: We can get the current charging power
  distribution with function
  [`get_charging_rates_distribution()`](https://resourcefully-dev.github.io/evprof/reference/get_charging_rates_distribution.md):

``` r

charging_rates <- get_charging_rates_distribution(sessions_demand) %>% 
  select(power, ratio)

print(charging_rates)
```

    ## # A tibble: 7,027 × 2
    ##    power    ratio
    ##    <dbl>    <dbl>
    ##  1 0.260 0.000142
    ##  2 0.340 0.000142
    ##  3 0.533 0.000142
    ##  4 0.6   0.000142
    ##  5 0.68  0.000142
    ##  6 0.682 0.000142
    ##  7 0.976 0.000142
    ##  8 1.02  0.000142
    ##  9 1.07  0.000142
    ## 10 1.07  0.000142
    ## # ℹ 7,017 more rows
…
