…
From all these plots, we see that the the higher the `MinPts` is, the
more center-focused is the final clean cluster. This is not a valid
approach for all data sets, so the value of `MinPts` must be defined
properly in every case. In this case, we decide that a good compromise
solution is a value of `MinPts` of **200** and a noise threshold of
**5%**:

``` r

plots_list[[15]]
```

    ## $data
    ## # A tibble: 12,946 × 14
    ##    Session ConnectionStartDateTime ConnectionEndDateTime ChargingStartDateTime
    ##    <chr>                     <dbl> <dttm>                <dttm>               
    ##  1 87420                      2.82 2015-09-05 08:25:00   2015-09-04 16:45:00  
    ##  2 87415                      2.85 2015-09-05 12:29:00   2015-09-04 17:14:00  
    ##  3 87417                      2.85 2015-09-05 11:30:00   2015-09-04 17:22:00  
    ##  4 87424                      2.87 2015-09-05 15:35:00   2015-09-04 17:37:00  
    ##  5 87425                      2.87 2015-09-05 11:25:00   2015-09-04 17:37:00  
    ##  6 87439                      2.91 2015-09-05 07:53:00   2015-09-04 18:17:00  
    ##  7 87449                      2.91 2015-09-05 08:38:00   2015-09-04 18:24:00  
    ##  8 87451                      2.92 2015-09-05 10:02:00   2015-09-04 18:33:00  
    ##  9 87483                      3.01 2015-09-05 07:44:00   2015-09-04 20:22:00  
    ## 10 87484                      3.02 2015-09-05 16:30:00   2015-09-04 20:28:00  
    ## # ℹ 12,936 more rows
    ## # ℹ 10 more variables: ChargingEndDateTime <dttm>, Power <dbl>, Energy <dbl>,
    ## #   ConnectionHours <dbl>, ChargingHours <dbl>, FlexibilityHours <dbl>,
    ## #   ChargingStation <chr>, Disconnection <fct>, Timecycle <fct>, Outlier <lgl>
    ## 
    ## $layers
    ## $layers[[1]]
    ## geom_point: na.rm = FALSE
    ## stat_identity: na.rm = FALSE
…
